module modernc.org/cc/v4

go 1.21

require (
	github.com/dustin/go-humanize v1.0.1
	github.com/pbnjay/memory v0.0.0-20210728143218-7b4eea64cf58
	github.com/pmezard/go-difflib v1.0.0
	modernc.org/ccorpus2 v1.5.2
	modernc.org/mathutil v1.7.1
	modernc.org/opt v0.1.4
	modernc.org/sortutil v1.2.1
	modernc.org/strutil v1.2.1
	modernc.org/token v1.1.0
)

require github.com/remyoudompheng/bigfft v0.0.0-20230129092748-24d4a6f8daec // indirect
